root\dao\entities\exceptions\PreexistingEntityException.class
root\controller\Controller.class
root\dao\entities\exceptions\NonexistentEntityException.class
com\mycompany\apidiccionario\JAXRSConfiguration.class
root\dao\entities\exceptions\IllegalOrphanException.class
root\dao\entities\PalabraDAO.class
com\mycompany\apidiccionario\resources\JavaEE8Resource.class
root\services\AppConfig.class
root\model\entities\Palabra.class
root\services\PalabraRest.class
